{
  "type": "service_account",
  "project_id": "proteg-app",
  "private_key_id": "4cf15a9b7cba011566f0697b85f267938c1b9723",
  "private_key": "-----BEGIN PRIVATE KEY-----\nMIIEvwIBADANBgkqhkiG9w0BAQEFAASCBKkwggSlAgEAAoIBAQCxpZCSKThIIrom\nReRYiHRmhGT6g+ajNMrPKFI8cI1CxZwWzGbmntUCfCbPoFmb4kEj1J3xvZOTvE+8\nX2mmcYf4DhhD/WJ0mdu7GKJ8r1CW+igFoswVBpBBRrR3euVqtO5XJOWWc3m5HMTL\nm2TFTsdT7oIjoDVWLnFVg1+PSnqJUfNfI5FHgjrreHKIYhaYGjUFBvqcMlAa1WSv\nW2MMI3cUgbGWG68X+4PttXnWCumDND6oq98b4nyWj1Y67Z17CZZpjfYAdyCOrIYH\nVL+jPOczshJu5XRLoEinEmJfTuTL8blkXIxnXxCJZM5Vma+mZX5l+Ssns4jwAMCa\n2mDrWp8rAgMBAAECggEAN80T7nV4MmCGLIODyLOELLelqHNKPTXWBuBZhJauKK09\n7INkR0jZDCDHaCysOSUG5SRiQI8WDi/2s+scmqXK2gZDZQfwp0O1G74PPC8tl18Y\ntzx98pTPN1HoWieGbNBMlZ8HZwz6zUTWJEa5jqjCQAEJa/tlBZ8tBnlvyOjSONO4\ngv73l0G8pOYjAyt0qvZiT/6IQhgAL+lXPfGJ08frviEsZIl/GgV8bOKhAn+OeWyJ\nKd5S6gmOaEtz72RfPFo1fcLyKDHgdccqg2PhqeiNg1geqZIrO1nALfq+cB+uZJSo\n6p6eLE9B962GmH0ghAOx+yhQyjmkcKdp2RdktDKtEQKBgQDrvOeeZYKrmEutqt0F\njPrXrHh3j6Gn/1VshskqH7YCNpu6rJYE9TzeKIS/epMzHye0r/kO6oU6i6j5FM9U\nPwmd1LUTCfnc3wGWhbN0UV0Y7Rm8cYI7ah/w8GCgAUnT6PoZ73+GIJhE44qO+hGp\nSC82l7VPpa9JWLE9TbzB66s0hwKBgQDA6nEkIAkclfgq2J1EsiUYEyFmBDrfReLq\n9fLM5CYIOnuPB0te7lVpYNJXwOkWp8LJz54V88b0kgb3nSX9BRDvZ4Be6DZ4/Vho\nuNbg8rBu5U2fXSgRfaGG2RrPcFLU/kmnktBuByNWitLh12TLbwwZT4rQ2zMY/LZs\nials0EnNPQKBgQDQe7i8NTpjV8VWSg4+ongV1cqUsspdMUvzNyEhx/nH61O+vHPQ\n3rJ+J4d/cIBObfdHrXmu32oEZQ+DegwCjd2LYFrkA6ae1/snjAcxj+Ot78MbDagH\ns8ub4nsSBxGsABdwaId3r8v64OHhoPeNpvFabsFDN1zWmUHm3aFaP3qicQKBgQC6\nlYWcZQerCDmgZyWkvZA2+rnAy7KNJDDXA84z8S3/o2DB81IonOcrJqQKj+BhMxyo\nyA+kN8Vj4qCueOW3FGFOy5JTONEGsDIEB1J8+v0+JLWwvw7z68iAfhb6Ly9OJivi\n0ZKZ+HlrSJWyLPul7t+K0231lyySrElcLMEbJ1FaGQKBgQDHLDQj9CiyIWB/MMCR\ntRGcKN85mJfhDalNO2DtaZ6hpGVMTxy9REs6xNV9xfNaYgypgFuRvbMuO1Z0TQqe\nAM941ay5j1Ri119cqjn1AgK8vwg8uepcZX++Tha83H0YdVbkKeqPhz/qzJyxav5t\nmp4C1LYG03w0Odk2WifgPE+J4A==\n-----END PRIVATE KEY-----\n",
  "client_email": "proteg-admin@proteg-app.iam.gserviceaccount.com",
  "client_id": "111487340030875149752",
  "auth_uri": "https://accounts.google.com/o/oauth2/auth",
  "token_uri": "https://oauth2.googleapis.com/token",
  "auth_provider_x509_cert_url": "https://www.googleapis.com/oauth2/v1/certs",
  "client_x509_cert_url": "https://www.googleapis.com/robot/v1/metadata/x509/proteg-admin%40proteg-app.iam.gserviceaccount.com"
}