{
  "type": "service_account",
  "project_id": "reactnative-evotek-test",
  "private_key_id": "1d73235bbe751888603301002a95e07e6db63418",
  "private_key": "-----BEGIN PRIVATE KEY-----\nMIIEvQIBADANBgkqhkiG9w0BAQEFAASCBKcwggSjAgEAAoIBAQDOAzPKXILvSmrX\n2LEo4aqqb9kvpDaiJ1sGVMkgFusDw5u0VmhwpgruTYD32CdETEBv2OubVQpD97TL\ntEOnrDsmgGYGMjXT9k9VvIAxIOl2ZE7lM8taO0BslJrn1YmJgr4GKoMD3i6ttpwy\nDR7q03isCPpz4qphxRqTlLpzyJBc6yvA8N9fAZ49YiAOkgPFOKC3kucYe9c3IpYw\nUDY7o62yXyodce93uhvpXBPVYr8o0+l8aLGzKOLrvldAWIebvEtE7gZYRmBNdNqd\n6sQy76QDEcczegUoxQ75qq5W6raquQFL9VcCdIsfotWLszfcGJPtp84b9wSCxUoy\ni/5ICP7rAgMBAAECggEABzgbOROV/CuLbTqkbPCbgwDnPlOTZooihLtr4N7acONT\nn8flGQjmPuAisfptIUORpVm8EQhF3GPgEFNc0m0U8PviTjr+fZwpLLGtxXiso21z\n3SxOVIlrlIcQmyl1nqtqN5LQFaoK9Uf+Dc5iL4vc/PgMt+ZQ8Qi45R+fZsBuyhK4\nHejactG/Pw21RMiKvKy02gM36vvuka06sY38Ov2uuajj9BZOsY8siYO6dv9bknmm\nu60ZWWwZk52Rq1bPzUe6QXFEmjR800IBSG2RsL3Nr4wc6/R+xknqMOvCZw01oYxt\nTinp7Oaw3+KW55/01htQPVXKFl8ULKTKb4kO+Y86gQKBgQDnF+zRO9ed9drmp0sn\nh3PXqTWvP3I8TzvYL3qET34Hz3dxC2EYFgpT8mKmbVEqKr4HPN80GKDcjk6caham\nSanrF1WGF0I8geJd/Fbcwd5LCDNE7XItZq3UQS2bWtcs3P++Nr0QO1zibEmrnOrd\nT65WwjMnKg5uGhbNdi5zm6VdewKBgQDkN0V/C7Ocsdw5cbZiYT8a/IVjG43sMhFQ\ng/nNto4s3u9gvZsSwzC5z5Rn0NbB8x7bmmNpo9xYLyjyN1eiDw0DXi+ujpsFDsao\nkOO8UNRflNEENXBSIQzrrK2fke+ZvTAO4XUIrWrXS3Qt04UJrXUPjcT5q4Uwx1sV\nIJ4raJ/RUQKBgB72kK90Mi6i+2J+Nc6lEntp25yQhrDX+O+9ZNAHip5nSNynpqnA\ngj+/MUKVUROySGXV3R4w0pTaqGPCvygmpJKwPLBLu3858+ed4NGRVER/Y8cvfWXh\n5RaUaRTwtfX34nhNA0YCfi6ETdalnr5qZ7SOLqZntyk/a6C53f11dFGzAoGBAMn8\n1YjFvZohnc5GA+v9MFJdUF3QpIN6KPL/bFiTjDDQvEP+bUNk+TpsLGjaYUnWOeia\nNATrH/n4+5+uNeTct2LUuRUhaLlIQ7IsUzR4wg868uhrt9cpI3twIVfLXarP1LpG\n+EPO4XJeeRyaSvSuzp4Ol1l3YvIycD452WSIPHORAoGAIaciEmXVWM6t8ZBrjaHa\nPqEHbIeKoPxJEfNDCCFJxlKKht8Iv+QsbAw+0nwR/NKaqrUjpu5sR3aKi/ZWXXve\n2Lg9wg47sQW7XL7DQ1fZQtnqLov+DsKPge9q7d2UxgrOsf2HtdEV6+G7Bb0A79tx\nrh7kzwkoqSsUAMSoHtjZEeU=\n-----END PRIVATE KEY-----\n",
  "client_email": "firebase-adminsdk-fhqzs@reactnative-evotek-test.iam.gserviceaccount.com",
  "client_id": "106369798396746939187",
  "auth_uri": "https://accounts.google.com/o/oauth2/auth",
  "token_uri": "https://oauth2.googleapis.com/token",
  "auth_provider_x509_cert_url": "https://www.googleapis.com/oauth2/v1/certs",
  "client_x509_cert_url": "https://www.googleapis.com/robot/v1/metadata/x509/firebase-adminsdk-fhqzs%40reactnative-evotek-test.iam.gserviceaccount.com"
}

