{
  "type": "service_account",
  "project_id": "proteg-movil",
  "private_key_id": "ffc82669a0eebc65c35f57289cc43462ba06e51d",
  "private_key": "-----BEGIN PRIVATE KEY-----\nMIIEvwIBADANBgkqhkiG9w0BAQEFAASCBKkwggSlAgEAAoIBAQDczNxIzgtKaXUp\nBj3wMSyv+RADXX+VugUpknoyqb5xurqQftpFAxGRF5r6I0YyvO8dbUodFAgJOjcO\nWR1X8nLhYtuwvCGYiuoYfBeTjsTBnt8j4HTYlJ6l+WG9s00WA6s72XCKXgaRFAj/\nzJGhtPGf01QgQRuvXxLVj/YDNMFNZSWOW3YxCb7URl2DWpH3mIrsLXBQTTtSgUP6\nYdaiRx3MizgqQ07jJlPTWrQ8wzkf7gxsEDcjfLG9sJo1vMvDSJsUfSnY33gIAK8W\n510okbNhORGPJChfni5u3ugCtAgeSQdyv5wxzGRXAqHff8MggJloBo7i+2L3DfzX\nIw/RE/tHAgMBAAECggEAAUpt6ovnef4dVeIvhl9ezQF5NYr9vvdFuZpB+JIKuahq\nJze3N98uAvPoM6fDmKfIUGst64hMRgbZVxTXV1GQwn2v2U93/rgO9jppY9OL8XUh\nJF+0kckDQXRHbrehtZpgphSkPg4Naym13159sUWv+JjzmF75ELwXoL4y2xf1A0Qf\nFyfkuJYgQ19tP1Laj2EecWJbS2pHq9a9sL4aXcyEBuLG8K7ytJoika0SNTsb5XN9\nAZ/slnaJ9sVh5ObZkwvq3jWKC6Yt9yO6UyC/Fundn+XJCZE8DbBLp22C/E7mqrjH\nAfy5csvI6Dy5vNYGwD1jWJNcylFLLYkZ7vEya7iwxQKBgQD189iWErDUOnscaDOm\nepjKwZYaZ5m472DexFhrzC3C/anV72Y2aR2+iWO72SIzwjDIc3VRoAFbMGqHs/5K\nv0XuPzWhnOXtK+OuEV+ZtjDGFcfEntsTiCNSxi40MX9GwdCE0fzzArzOqEDRkFmV\n0BSy6Fz2ZlpbNcWobsfV/ZZK7QKBgQDl0fk/CHaeIZVX1R3fOtnhjMmn+OmyShjq\ncMsBnRXn2gbiiwYnu3XXVXHxplzz8AKfmGEMiiyMPtn8YCpdx4H/Jy1r4kiy6fEc\nQWCkePS9qSWvul9dqIbXZU89wkCGiAWE55SRPTyX1k6tuv5hVixHNEjVmknU6RWA\nZVO/adG0gwKBgQCZaA/mgx/yL8vMCx50LzGP/bEPJSFXnU9RgywXiJHednNxMdIS\nC/x2dKFVcHiJygy9am55jBBsfUVlARqSKr2GfbyI4iDzjpWDY+i6Kk4/ryQb+m1w\nwFAv99anzVuymX7i6UsZk9KKH53WWG/YJqJSeOZK9cpT67UuenKAgZw1fQKBgQCL\nRegqTtKzmd6LT9e+hEet7Ef4x1u4dDcNPDWKUMwJqZMqjt24Dl6nlFxs+Uize+vb\nE9kcZFAC3cP0scJ6+oDJQ9C+5G7yHdvEJ8qNYc/PcEYqbGOGuq6csgSHhMTdwmi1\n1jGuotGponIjzoKCMlq6+/B3ofzETkx9dup9wX8YSQKBgQDRFpwIDvgxTidiJuoQ\nFTl2No6aZUA180sbfQ407A5fvX3G3jAMbB7p1V8K8jiO1QoiGKhM/ysXNpiq+5cQ\nzYAkRkCsms6fwMHUybdakvguIhOo8twae4z2b/4/Wr0VpWaIuoLZlovYjkLqauPW\nIEp40+49RGUvVTM+VOXCcifIUA==\n-----END PRIVATE KEY-----\n",
  "client_email": "firebase-adminsdk-9zrha@proteg-movil.iam.gserviceaccount.com",
  "client_id": "102805429138536678763",
  "auth_uri": "https://accounts.google.com/o/oauth2/auth",
  "token_uri": "https://oauth2.googleapis.com/token",
  "auth_provider_x509_cert_url": "https://www.googleapis.com/oauth2/v1/certs",
  "client_x509_cert_url": "https://www.googleapis.com/robot/v1/metadata/x509/firebase-adminsdk-9zrha%40proteg-movil.iam.gserviceaccount.com"
}
